R aplicado a la medición de la biodiversidad 🐟🦀🐅👨‍💻
…
---

## Select

```r
msleep %>% select(order, order, sleep_total)
```

```
## # A tibble: 83 x 2
##    order        sleep_total
##    <chr>              <dbl>
##  1 Carnivora           12.1
##  2 Primates            17  
##  3 Rodentia            14.4
##  4 Soricomorpha        14.9
##  5 Artiodactyla         4  
##  6 Pilosa              14.4
##  7 Carnivora            8.7
##  8 Rodentia             7  
##  9 Carnivora           10.1
## 10 Artiodactyla         3  
## # … with 73 more rows
```

---

## Select

```r
msleep %>% select(3:5)
```

```
## # A tibble: 83 x 3
##    vore  order        conservation
##    <chr> <chr>        <chr>       
##  1 carni Carnivora    lc          
##  2 omni  Primates     <NA>        
##  3 herbi Rodentia     nt          
##  4 omni  Soricomorpha lc          
##  5 herbi Artiodactyla domesticated
##  6 herbi Pilosa       <NA>        
##  7 carni Carnivora    vu          
##  8 <NA>  Rodentia     <NA>        
##  9 carni Carnivora    domesticated
## 10 herbi Artiodactyla lc          
## # … with 73 more rows
```

---

## Select

```r
msleep %>% select(c(5, 6, 7))
```

```
## # A tibble: 83 x 3
##    conservation sleep_total sleep_rem
##    <chr>              <dbl>     <dbl>
##  1 lc                  12.1      NA  
##  2 <NA>                17         1.8
##  3 nt                  14.4       2.4
##  4 lc                  14.9       2.3
##  5 domesticated         4         0.7
##  6 <NA>                14.4       2.2
##  7 vu                   8.7       1.4
##  8 <NA>                 7        NA  
##  9 domesticated        10.1       2.9
## 10 lc                   3        NA  
## # … with 73 more rows
```

---

## Select

```r
msleep %>% select_if(is.numeric)
```

```
## # A tibble: 83 x 6
##    sleep_total sleep_rem sleep_cycle awake  brainwt  bodywt
##          <dbl>     <dbl>       <dbl> <dbl>    <dbl>   <dbl>
##  1        12.1      NA        NA      11.9 NA        50    
##  2        17         1.8      NA       7    0.0155    0.48 
##  3        14.4       2.4      NA       9.6 NA         1.35 
##  4        14.9       2.3       0.133   9.1  0.00029   0.019
##  5         4         0.7       0.667  20    0.423   600    
##  6        14.4       2.2       0.767   9.6 NA         3.85 
##  7         8.7       1.4       0.383  15.3 NA        20.5  
##  8         7        NA        NA      17   NA         0.045
##  9        10.1       2.9       0.333  13.9  0.07     14    
## 10         3        NA        NA      21    0.0982   14.8  
## # … with 73 more rows
```

---

## Select

```r
msleep %>% select_if(is.character)
```

```
## # A tibble: 83 x 5
##    name                       genus       vore  order        conservation
##    <chr>                      <chr>       <chr> <chr>        <chr>       
##  1 Cheetah                    Acinonyx    carni Carnivora    lc          
##  2 Owl monkey                 Aotus       omni  Primates     <NA>        
##  3 Mountain beaver            Aplodontia  herbi Rodentia     nt          
##  4 Greater short-tailed shrew Blarina     omni  Soricomorpha lc          
##  5 Cow                        Bos         herbi Artiodactyla domesticated
##  6 Three-toed sloth           Bradypus    herbi Pilosa       <NA>        
##  7 Northern fur seal          Callorhinus carni Carnivora    vu          
##  8 Vesper mouse               Calomys     <NA>  Rodentia     <NA>        
##  9 Dog                        Canis       carni Carnivora    domesticated
## 10 Roe deer                   Capreolus   herbi Artiodactyla lc          
## # … with 73 more rows
```
…
---

## Filter

```r
msleep %>% filter(order != "Carnivora")
```

```
## # A tibble: 71 x 11
##    name   genus vore  order conservation sleep_total sleep_rem sleep_cycle awake
##    <chr>  <chr> <chr> <chr> <chr>              <dbl>     <dbl>       <dbl> <dbl>
##  1 Owl m… Aotus omni  Prim… <NA>                17         1.8      NA       7  
##  2 Mount… Aplo… herbi Rode… nt                  14.4       2.4      NA       9.6
##  3 Great… Blar… omni  Sori… lc                  14.9       2.3       0.133   9.1
##  4 Cow    Bos   herbi Arti… domesticated         4         0.7       0.667  20  
##  5 Three… Brad… herbi Pilo… <NA>                14.4       2.2       0.767   9.6
##  6 Vespe… Calo… <NA>  Rode… <NA>                 7        NA        NA      17  
##  7 Roe d… Capr… herbi Arti… lc                   3        NA        NA      21  
##  8 Goat   Capri herbi Arti… lc                   5.3       0.6      NA      18.7
##  9 Guine… Cavis herbi Rode… domesticated         9.4       0.8       0.217  14.6
## 10 Grivet Cerc… omni  Prim… lc                  10         0.7      NA      14  
## # … with 61 more rows, and 2 more variables: brainwt <dbl>, bodywt <dbl>
```

---

## Filter

```r
msleep %>% filter(order != "Carnivora")
```

```
## # A tibble: 71 x 11
##    name   genus vore  order conservation sleep_total sleep_rem sleep_cycle awake
##    <chr>  <chr> <chr> <chr> <chr>              <dbl>     <dbl>       <dbl> <dbl>
##  1 Owl m… Aotus omni  Prim… <NA>                17         1.8      NA       7  
##  2 Mount… Aplo… herbi Rode… nt                  14.4       2.4      NA       9.6
##  3 Great… Blar… omni  Sori… lc                  14.9       2.3       0.133   9.1
##  4 Cow    Bos   herbi Arti… domesticated         4         0.7       0.667  20  
##  5 Three… Brad… herbi Pilo… <NA>                14.4       2.2       0.767   9.6
##  6 Vespe… Calo… <NA>  Rode… <NA>                 7        NA        NA      17  
##  7 Roe d… Capr… herbi Arti… lc                   3        NA        NA      21  
##  8 Goat   Capri herbi Arti… lc                   5.3       0.6      NA      18.7
##  9 Guine… Cavis herbi Rode… domesticated         9.4       0.8       0.217  14.6
## 10 Grivet Cerc… omni  Prim… lc                  10         0.7      NA      14  
## # … with 61 more rows, and 2 more variables: brainwt <dbl>, bodywt <dbl>
```

---

## Filter

```r
msleep %>% filter(order %in% c("Carnivora", "Primates"))
```

```
## # A tibble: 24 x 11
##    name   genus vore  order conservation sleep_total sleep_rem sleep_cycle awake
##    <chr>  <chr> <chr> <chr> <chr>              <dbl>     <dbl>       <dbl> <dbl>
##  1 Cheet… Acin… carni Carn… lc                  12.1      NA        NA      11.9
##  2 Owl m… Aotus omni  Prim… <NA>                17         1.8      NA       7  
##  3 North… Call… carni Carn… vu                   8.7       1.4       0.383  15.3
##  4 Dog    Canis carni Carn… domesticated        10.1       2.9       0.333  13.9
##  5 Grivet Cerc… omni  Prim… lc                  10         0.7      NA      14  
##  6 Patas… Eryt… omni  Prim… lc                  10.9       1.1      NA      13.1
##  7 Domes… Felis carni Carn… domesticated        12.5       3.2       0.417  11.5
##  8 Galago Gala… omni  Prim… <NA>                 9.8       1.1       0.55   14.2
##  9 Gray … Hali… carni Carn… lc                   6.2       1.5      NA      17.8
## 10 Human  Homo  omni  Prim… <NA>                 8         1.9       1.5    16  
## # … with 14 more rows, and 2 more variables: brainwt <dbl>, bodywt <dbl>
```
…
---

## mutate

```r
ms_sleep2 <- msleep %>% 
  select(order, genus, sleep_total) %>% 
  mutate(sueño_maximo = max(sleep_total))

ms_sleep2
```

```
## # A tibble: 83 x 4
##    order        genus       sleep_total sueño_maximo
##    <chr>        <chr>             <dbl>        <dbl>
##  1 Carnivora    Acinonyx           12.1         19.9
##  2 Primates     Aotus              17           19.9
##  3 Rodentia     Aplodontia         14.4         19.9
##  4 Soricomorpha Blarina            14.9         19.9
##  5 Artiodactyla Bos                 4           19.9
##  6 Pilosa       Bradypus           14.4         19.9
##  7 Carnivora    Callorhinus         8.7         19.9
##  8 Rodentia     Calomys             7           19.9
##  9 Carnivora    Canis              10.1         19.9
## 10 Artiodactyla Capreolus           3           19.9
## # … with 73 more rows
```
…
---

## Rename

```r
ms_sleep2 %>% 
  dplyr::rename(orden = order, Genero = genus, total = sleep_total, maximo = sueño_maximo)
```

```
## # A tibble: 83 x 4
##    orden        Genero      total maximo
##    <chr>        <chr>       <dbl>  <dbl>
##  1 Carnivora    Acinonyx     12.1   19.9
##  2 Primates     Aotus        17     19.9
##  3 Rodentia     Aplodontia   14.4   19.9
##  4 Soricomorpha Blarina      14.9   19.9
##  5 Artiodactyla Bos           4     19.9
##  6 Pilosa       Bradypus     14.4   19.9
##  7 Carnivora    Callorhinus   8.7   19.9
##  8 Rodentia     Calomys       7     19.9
##  9 Carnivora    Canis        10.1   19.9
## 10 Artiodactyla Capreolus     3     19.9
## # … with 73 more rows
```
…
